{
  "type": "service_account",
  "project_id": "bias-tracker-1030d",
  "private_key_id": "0e865b77f9586fc2dce60d392ff13e2d5827bec1",
  "private_key": "-----BEGIN PRIVATE KEY-----\nMIIEvQIBADANBgkqhkiG9w0BAQEFAASCBKcwggSjAgEAAoIBAQCcKhB8+IJMXyys\n+2/DD+CH6+AuDf6UY1GnpvUlslBgr1Umq263XQGNmpM7SLuws6WiOFhRTWdSfPjN\nrUsd+nN840IIe9j//W7Bj1ZBX9s8UFv2FAUj60o70QXEarQ9ZPK6AUFjSRHUNLK4\nm+dl4rrAsYcX+gMNYNSsuCLsg+RB2KYh9kDY8LAPyPsDm7c0RTi00ZUGMGVcu98p\nbhbbpsQo7/g+LokkO/DCCbM7mXIBLHagsWgdcwrdGo7cxY9yXF4b4U9W+HaXGZsb\ncvUXguARwe1zy+tH92g19sU/Sz129pdxa9XzMjOLghq3IAZiYjEg3EzvVeTmxF/L\nSZCrV8zdAgMBAAECggEANwTE6VqegWy4rzsorYce+pQ6V897ZWk2gAQc84qGsgGj\n1OtqJvUAEpUmkSj3Y3JvhR8n0oEcSV4ZRFFtGSM/Y/0nKxkDI3F0/4HSCFdOxMml\nFKYKB5Uigr+KMiDL3qN9ttWxZVr9io+EdfELjgRa+n+xUlu1jpWSaEW5nC19kkrF\n8/BMMAW25Za3Av6loooVKHyRxF5dQSOwaUICHEjuoH2XYmwWvRijVeD3dbJm4f8V\nafqG6KNrVmP4lpZc4E9as8UStrK9b0Iwq3sY2pUaRIhB4MtFx1VojpFbw2UpYHAn\nd/YWvO4zLGm/o/x4WkbwZ9iyP+CXjcKWHf8fU1uJSwKBgQC1dPNuNsN3xDKLwhqr\n3DOIh89mp86svARK6DhSD559qCBITBeuEW+xWlI/coIKZxzzVSLrl0IApwYTwZZY\n/x7A5ndSfPpFjRjomUp3ncbJmAQtXPye5Se+tzaODV/ewjPB1Sl7KRMrf116AFsV\n2v/NqM0EVTzc7RY53evE+lbtpwKBgQDcUTSac13/1HKqdxkpFtLSMNvcUstGwXg2\n9hgzTP/M1m+eB0huSGrXTm8qOZ4s5U4L0scgiWGNdvcHGWZgvwq8AJGlqeK86pXj\ngFNnw74sgpJsFe6kL2AKwMsQ/xiaY0v/DxbyGPryWpj9Aerv/9xzua8qtEmnvUDD\nJk1xopdp2wKBgQCGR5+FJf2MeaI2DlQSbgest2PhwbiN1y0OCb7z6x8MOgh5t+Wm\nKL0Q75gB38kfzaJ857nJwctUFEXJBO8vuMuXUHVok5fZNEsEhbu3vQhIUrh0oWVI\naKf62DYE9RzHCcunWwkxXPoUrFIOYIkHKWM3W/0rgbBihQh3liRNRjxh7QKBgB8o\n6QyzJmdJb9JGN+vEy5poyJ+3ogJm2I7FbZTL3h3lcjHii871NQ8wi65oKcPlxo0L\niZhDdeWhHr0FTaJ/QpBmcDMC/QuFDh/4BVPWrm3zJaxdybu065t5uv6zZZJoWtY/\nFxq0h8GBKMQX4leBU3eWmnyqtQQhUyiGoUtiGJIjAoGAKjKSDszs+iujS4mB7vJf\n0e3lLebiV3Ixqa5dvuVupyYJnKAb/PcJMojoniwFsPImE+cdb1Jd2mP71/49hr/E\nhEsgZ2Nk+fe/vmFrBrZwTAyxdi+yY+3xEPizCNiv/tS6C67AHbg6rw2hYTCiyMPd\n9MgMEhfvkFNBpi1YoLsnkCI=\n-----END PRIVATE KEY-----\n",
  "client_email": "firebase-adminsdk-25cot@bias-tracker-1030d.iam.gserviceaccount.com",
  "client_id": "112936828607909758450",
  "auth_uri": "https://accounts.google.com/o/oauth2/auth",
  "token_uri": "https://oauth2.googleapis.com/token",
  "auth_provider_x509_cert_url": "https://www.googleapis.com/oauth2/v1/certs",
  "client_x509_cert_url": "https://www.googleapis.com/robot/v1/metadata/x509/firebase-adminsdk-25cot%40bias-tracker-1030d.iam.gserviceaccount.com",
  "universe_domain": "googleapis.com"
}
